﻿ID_Rachunek,Nr_Rachunku
1,507021
2,894839
3,788498
4,673939
5,514275
6,883779
7,671859
8,565282
9,593319
10,538439
11,874591
12,629666
13,520593
14,574331
15,824757
16,894071
17,738815
18,638735
19,623769
20,635096
21,748868
22,512651
23,638281
24,705230
25,600566
26,574023
27,826788
28,841869
29,749046
30,558715
31,647939
32,607521
33,632658
34,713227
35,768866
36,603577
37,782239
38,686832
39,734058
40,761222
41,575717
42,722236
43,549827
44,566406
45,870436
46,826065
47,808573
48,767471
49,681991
50,721265
51,705006
52,552087
53,890031
54,778110
55,786320
56,870670
57,520056
58,547664
59,638683
60,644333
61,815814
62,685170
63,693746
64,894512
65,878945
66,810124
67,845488
68,734929
69,775333
70,579025
71,669598
72,769468
73,544964
74,864716
75,665601
76,861580
77,758539
78,770119
79,664986
80,512091
81,707723
82,604058
83,654455
84,674423
85,867278
86,808195
87,851047
88,626137
89,856273
90,851797
91,794228
92,503415
93,705516
94,517805
95,592142
96,696147
97,877280
98,793142
99,691881
100,806352
101,648413
102,772591
103,507469
104,786680
105,865806
106,577694
107,839624
108,801034
109,736331
110,781058
111,762019
112,790682
113,758856
114,882874
115,609612
116,605019
117,615494
118,641207
119,505823
120,778006
121,587084
122,691590
123,601702
124,631961
125,801868
126,862880
127,598743
128,543613
129,727066
130,535194
131,626638
132,788716
133,620355
134,593071
135,813478
136,870494
137,665496
138,550617
139,514745
140,703389
141,868631
142,758612
143,894890
144,747721
145,777403
146,578983
147,872210
148,788370
149,720096
150,640929
151,775454
152,787538
153,561912
154,569430
155,507504
156,570905
157,724309
158,850249
159,770410
160,693796
161,677387
162,744858
163,808250
164,536454
165,503091
166,718923
167,758826
168,740636
169,802514
170,768778
171,755733
172,830137
173,797690
174,793362
175,683582
176,857711
177,713095
178,621992
179,504391
180,820952
181,741690
182,719029
183,880364
184,566517
185,717557
186,602231
187,603558
188,882940
189,748764
190,711309
191,897357
192,822631
193,887832
194,675866
195,751020
196,701602
197,656722
198,749412
199,579397
200,778030
201,896874
202,899906
203,672251
204,727494
205,689363
206,540933
207,522481
208,863658
209,548435
210,873884
211,830853
212,636774
213,781344
214,590100
215,677276
216,787723
217,507229
218,620754
219,778570
220,739226
221,721565
222,621910
223,806535
224,518147
225,829640
226,885310
227,610098
228,861390
229,501672
230,705083
231,752326
232,713398
233,661281
234,525477
235,573403
236,534566
237,801233
238,521818
239,539081
240,819890
241,608054
242,870058
243,781099
244,819262
245,802272
246,881046
247,731774
248,884286
249,594480
250,509419
251,608393
252,863997
253,719564
254,702625
255,755839
256,791329
257,728897
258,552781
259,585079
260,555556
261,669439
262,690589
263,602738
264,581195
265,596039
266,726147
267,847966
268,836495
269,791044
270,663573
271,754448
272,833106
273,845665
274,511797
275,727652
276,860097
277,722928
278,735340
279,540108
280,851494
281,562504
282,630250
283,826957
284,744267
285,771353
286,819045
287,669553
288,631587
289,653284
290,677906
291,828354
292,522152
293,896311
294,551971
295,687457
296,849244
297,855309
298,628165
299,837284
300,630943
301,670423
302,707691
303,566908
304,689206
305,509398
306,730776
307,569358
308,582054
309,584317
310,566042
311,857923
312,651080
313,795413
314,750022
315,570357
316,642633
317,860301
318,623638
319,893315
320,693853
321,799889
322,870248
323,670774
324,661698
325,712316
326,579190
327,671539
328,572760
329,871626
330,588147
331,807778
332,861600
333,541952
334,530308
335,795463
336,707107
337,874399
338,591058
339,626604
340,528845
341,855550
342,642230
343,869844
344,876563
345,613824
346,565060
347,847101
348,737150
349,732457
350,538424
351,715580
352,526656
353,537223
354,530788
355,637778
356,571135
357,886412
358,843565
359,872872
360,557314
361,850764
362,731169
363,596767
364,881832
365,701126
366,733762
367,760533
368,890237
369,543956
370,866014
371,830719
372,718916
373,687734
374,809715
375,833399
376,575402
377,829282
378,679823
379,842723
380,598221
381,680018
382,686560
383,825444
384,725039
385,715462
386,580388
387,819558
388,806754
389,585840
390,771550
391,740789
392,809766
393,728604
394,796727
395,520038
396,679420
397,520887
398,656032
399,739634
400,652279
401,582723
402,889450
403,693780
404,741304
405,862944
406,766738
407,762676
408,852107
409,836890
410,545450
411,625047
412,710175
413,749685
414,512129
415,834431
416,820081
417,663812
418,875480
419,545055
420,505034
421,557670
422,652656
423,573050
424,604858
425,797888
426,812719
427,667468
428,595897
429,595540
430,841262
431,513026
432,762976
433,875232
434,589502
435,551757
436,598939
437,740002
438,692563
439,721715
440,878745
441,734414
442,671614
443,662865
444,663344
445,704033
446,854669
447,898451
448,787464
449,519983
450,678812
451,525968
452,644843
453,705867
454,688073
455,642503
456,585050
457,524161
458,897218
459,547833
460,561189
461,805133
462,893220
463,599858
464,756223
465,700635
466,629234
467,541079
468,573776
469,856779
470,654035
471,551291
472,694403
473,743854
474,824655
475,672847
476,851603
477,899039
478,822845
479,874087
480,708760
481,554670
482,751856
483,835475
484,514239
485,588356
486,677164
487,779209
488,635682
489,551935
490,603731
491,547353
492,816039
493,667058
494,709070
495,591041
496,877551
497,666215
498,681522
499,658485
500,724718
501,501375
502,633119
503,615525
504,649852
505,609009
506,776171
507,598748
508,818571
509,542938
510,783557
511,550408
512,527506
513,560544
514,670830
515,729751
516,857102
517,871967
518,860159
519,778268
520,536083
521,886626
522,589370
523,695628
524,561555
525,548761
526,782517
527,679425
528,536713
529,667998
530,509494
531,663720
532,697844
533,827767
534,755785
535,765027
536,734449
537,524222
538,520557
539,671277
540,864635
541,862841
542,793665
543,776740
544,536459
545,598546
546,550513
547,723631
548,692534
549,529959
550,524070
551,839742
552,785258
553,854665
554,878042
555,608185
556,825180
557,880957
558,600840
559,851710
560,631532
561,870852
562,706838
563,838006
564,760504
565,772023
566,687062
567,628412
568,578223
569,525205
570,865147
571,511699
572,669903
573,657659
574,765188
575,556880
576,841843
577,769459
578,666980
579,533712
580,694650
581,718506
582,864375
583,657309
584,703718
585,781103
586,841855
587,586844
588,669390
589,813850
590,697991
591,871855
592,691570
593,522650
594,742215
595,512613
596,827304
597,643175
598,776094
599,749618
600,519670
601,807703
602,719883
603,553847
604,623682
605,643011
606,657424
607,895401
608,705062
609,898310
610,628465
611,544752
612,834022
613,888094
614,895054
615,723924
616,637601
617,780689
618,532067
619,847235
620,801842
621,589123
622,778882
623,768119
624,666482
625,775851
626,880824
627,613911
628,892783
629,823619
630,559079
631,681681
632,664737
633,597983
634,864539
635,552736
636,750442
637,716940
638,761792
639,567538
640,804459
641,595502
642,731614
643,614191
644,569456
645,513924
646,577433
647,874729
648,596742
649,508100
650,826135
651,822311
652,645045
653,777894
654,671092
655,699533
656,899560
657,595013
658,627729
659,837436
660,825753
661,737177
662,602158
663,782677
664,634093
665,799400
666,705066
667,833399
668,654498
669,833041
670,622078
671,844819
672,746784
673,779243
674,517283
675,775953
676,742018
677,897572
678,676862
679,509840
680,877700
681,699115
682,687909
683,763694
684,784142
685,814630
686,894954
687,535628
688,786489
689,650016
690,593729
691,748051
692,701973
693,808268
694,850776
695,736322
696,758719
697,876221
698,541044
699,595471
700,815226
701,711597
702,659255
703,898227
704,558213
705,694937
706,677348
707,895521
708,651871
709,737047
710,859993
711,773228
712,534548
713,827143
714,720101
715,776486
716,734416
717,860344
718,815337
719,892205
720,679733
721,514907
722,730824
723,792727
724,595313
725,816391
726,760501
727,710674
728,552803
729,797630
730,522787
731,613606
732,504990
733,748291
734,635319
735,755173
736,712812
737,767971
738,825494
739,649975
740,810215
741,723353
742,699318
743,713643
744,661755
745,680678
746,564491
747,753077
748,673723
749,848777
750,548923
751,628371
752,668381
753,733550
754,505477
755,881034
756,663161
757,879845
758,619987
759,803437
760,655392
761,555458
762,559303
763,703445
764,840367
765,603808
766,681342
767,876162
768,646839
769,749080
770,856761
771,854631
772,633762
773,855877
774,536246
775,581868
776,612555
777,555027
778,577288
779,680483
780,593975
781,794356
782,770865
783,803645
784,510718
785,888006
786,581697
787,670231
788,748621
789,891091
790,650820
791,776215
792,642191
793,794917
794,556163
795,723315
796,768022
797,560559
798,618725
799,621852
800,536020
801,595179
802,559898
803,856371
804,637529
805,869458
806,602348
807,893360
808,873734
809,877305
810,898943
811,659040
812,518992
813,728466
814,634781
815,793267
816,753668
817,544904
818,664829
819,551313
820,706763
821,559662
822,844520
823,757598
824,661142
825,638323
826,656225
827,658510
828,696836
829,733598
830,853765
831,751301
832,699067
833,618412
834,782319
835,796397
836,647520
837,801789
838,665232
839,539768
840,518251
841,614735
842,623205
843,857227
844,584758
845,582370
846,833713
847,725889
848,799365
849,718190
850,645140
851,798857
852,836728
853,583582
854,795550
855,873189
856,851273
857,584752
858,571525
859,510903
860,619659
861,859686
862,674427
863,817486
864,763513
865,794134
866,730907
867,815170
868,560570
869,830399
870,893712
871,723970
872,707347
873,579620
874,772460
875,888318
876,815838
877,834669
878,840560
879,661505
880,571600
881,840887
882,829772
883,698446
884,567002
885,590503
886,739908
887,716612
888,528779
889,754308
890,594140
891,553189
892,894858
893,795225
894,746305
895,752507
896,824678
897,773779
898,535083
899,569998
900,888467
901,647162
902,806265
903,741192
904,589797
905,710264
906,875523
907,572945
908,730714
909,585140
910,866815
911,749188
912,613976
913,875074
914,609006
915,508529
916,835862
917,514006
918,598993
919,634471
920,772418
921,521950
922,744867
923,636915
924,606322
925,795819
926,895337
927,753023
928,523284
929,653265
930,642355
931,858624
932,523824
933,521365
934,665547
935,638149
936,617647
937,590374
938,522884
939,578817
940,519074
941,857025
942,830447
943,841654
944,896374
945,792796
946,789680
947,671537
948,586917
949,546040
950,748900
951,852176
952,823116
953,642057
954,507088
955,728121
956,582336
957,524603
958,543562
959,538234
960,657939
961,605619
962,542748
963,614399
964,829566
965,686060
966,611853
967,548793
968,606450
969,811248
970,502445
971,820447
972,631518
973,859224
974,662993
975,843946
976,853773
977,598738
978,791963
979,527961
980,820775
981,752686
982,891447
983,723711
984,660884
985,840962
986,502328
987,613990
988,723395
989,632727
990,853254
991,535100
992,879106
993,679653
994,524750
995,656838
996,585536
997,602993
998,864063
999,657008
1000,657770
